c:\opt\workspace\desafio-java-banco\src\main\java\com\southsystem\desafiojavabanco\converter\PessoaTypeConverter.java
c:\opt\workspace\desafio-java-banco\src\main\java\com\southsystem\desafiojavabanco\converter\ContaCorrenteTypeConverter.java
c:\opt\workspace\desafio-java-banco\src\main\java\com\southsystem\desafiojavabanco\service\PessoaServiceImpl.java
c:\opt\workspace\desafio-java-banco\src\main\java\com\southsystem\desafiojavabanco\controller\ContaCorrenteController.java
c:\opt\workspace\desafio-java-banco\src\main\java\com\southsystem\desafiojavabanco\entity\Pessoa.java
c:\opt\workspace\desafio-java-banco\src\main\java\com\southsystem\desafiojavabanco\DesafioJavaBancoApplication.java
c:\opt\workspace\desafio-java-banco\src\main\java\com\southsystem\desafiojavabanco\entity\ContaCorrente.java
c:\opt\workspace\desafio-java-banco\src\main\java\com\southsystem\desafiojavabanco\entity\ContaCorrenteTypeEnum.java
c:\opt\workspace\desafio-java-banco\src\main\java\com\southsystem\desafiojavabanco\entity\PessoaTypeEnum.java
c:\opt\workspace\desafio-java-banco\src\main\java\com\southsystem\desafiojavabanco\repository\PessoaRepository.java
c:\opt\workspace\desafio-java-banco\src\main\java\com\southsystem\desafiojavabanco\service\PessoaService.java
c:\opt\workspace\desafio-java-banco\src\main\java\com\southsystem\desafiojavabanco\entity\LimiteEnum.java
c:\opt\workspace\desafio-java-banco\src\main\java\com\southsystem\desafiojavabanco\service\ContaCorrenteServiceImpl.java
c:\opt\workspace\desafio-java-banco\src\main\java\com\southsystem\desafiojavabanco\repository\ContaCorrenteRepository.java
c:\opt\workspace\desafio-java-banco\src\main\java\com\southsystem\desafiojavabanco\service\ContaCorrenteService.java
c:\opt\workspace\desafio-java-banco\src\main\java\com\southsystem\desafiojavabanco\controller\PessoaController.java
